﻿Authors;Title;Year;Conference / Journal ;Volume;Issue;Page start;Page end;Publisher
Apel S., Von Rhein A., Wendler P., Groslinger A., Beyer D.;Strategies for product-line verification: Case studies and experiments;2013;2013 35th International Conference on Software Engineering, ICSE 2013;;;482;491;
Buonanno F., Di Leo D., Di Paolo P., Pietrantuono R., Russo S.;Requirements engineering in rail transit production: An experience report;2013;2013 24th IEEE International Symposium on Software Reliability Engineering Workshops, ISSREW 2013;;;349;352;
Erwig M., Ostermann K., Rendel T., Walkingshaw E.;Adding configuration to the choice calculus;2013;7th International Workshop on Variability Modelling of Software-Intensive Systems, VaMoS 2013;;;;;
Kowal M., Schulze S., Schaefer I.;Towards efficient SPL testing by variant reduction;2013;4th International Workshop on Variability and Composition, VariComp 2013;;;1;5;
Lanman J.T., Linos P.K.;Employing service orientation to enable Training as a Service in the U.S. Army;2013;1st IEEE International Conference on Cloud Engineering, IC2E 2013;;;62;69;
Moradi A., Oswald D., Paar C., Swierczynski P.;Side-channel attacks on the bitstream encryption mechanism of Altera Stratix II: Facilitating black-box analysis using software reverse-engineering;2013;2013 ACM/SIGDA International Symposium on Field Programmable Gate Arrays, FPGA 2013;;;91;99;
Murashkin A., Antkiewicz M., Rayside D., Czarnecki K.;Visualization and exploration of optimal variants in product line engineering;2013;17th International Software Product Line Conference, SPLC 2013;;;111;115;
Scacchi W., Alspaugh T.A.;Processes in securing open architecture software systems;2013;2013 International Conference on Software and Systems Process, ICSSP 2013;;;126;135;
Schulze M., Mauersberger J., Beuche D.;Functional safety and variability: Can it be brought together?;2013;17th International Software Product Line Conference, SPLC 2013;;;236;243;
Stanley D.M., Xu D., Spafford E.H.;Improved kernel security through memory layout randomization;2013;2013 IEEE 32nd International Performance Computing and Communications Conference, IPCCC 2013;;;;;
Varshosaz M., Khosravi R.;Discrete time Markov chain families: Modeling and verification of probabilistic software product lines;2013;17th International Software Product Line Conference Co-located Workshops, SPLC 2013;;;34;41;
Baumgart S., Fröberg J., Punnekkat S.;Towards efficient functional safety certification of construction machinery using a component-based approach;2012;2012 3rd International Workshop on Product LinE Approaches in Software Engineering, PLEASE 2012;;;1;4;
Bessling S., Huhn M.;Formal safety analysis and verification in the model driven development of a pacemaker product line;2012;Dagstuhl-Workshop MBEES: Modellbasierte Entwicklung eingebetteter Systeme VIII - 8th Workshop on Model-Based Development of Embedded Systems, MBEES 2012;;;133;143;
Bodden E.;Position paper: Static flow-sensitive & context-sensitive information-flow analysis for software product lines;2012;ACM SIGPLAN 7th Workshop on Programming Languages and Analysis for Security, PLAS'12;;;;;
Cardoso N., Rodrigues P., Ribeiro O., Cabral J., Monteiro J., Mendes J., Tavares A.;An agile software product line model-driven design environment for video surveillance systems;2012;2012 IEEE 17th International Conference on Emerging Technologies and Factory Automation, ETFA 2012;;;;;
Cardoso N., Vale J., Ribeiro O., Cabral J., Cardoso P., Mendes J., Tavares A.;Model-driven template metaprogramming;2012;2012 IEEE 17th International Conference on Emerging Technologies and Factory Automation, ETFA 2012;;;;;
Filho J.B.F., Barais O., Baudry B., Le Noir J.;Leveraging variability modeling for multi-dimensional model-driven software product lines;2012;2012 3rd International Workshop on Product LinE Approaches in Software Engineering, PLEASE 2012;;;5;8;
Gallina B., Sljivo I., Jaradat O.;Towards a safety-oriented process line for enabling reuse in safety critical systems development and certification;2012;2012 IEEE 35th Software Engineering Workshop, SEW 2012;;;148;157;
Li D., Yang Y.;Enhance value by building trustworthy software-reliant system of systems from software product lines;2012;2012 3rd International Workshop on Product LinE Approaches in Software Engineering, PLEASE 2012;;;13;16;
Mellado D., Mouratidis H.;Towards the extension of Secure Tropos language to support Software Product Lines development;2012;9th International Workshop on Security in Information Systems, WOSIS 2012, in Conjunction with ICEIS 2012;;;69;76;
Nishi Y.;Viewpoint-based test architecture design;2012;2012 IEEE 6th International Conference on Software Security and Reliability Companion, SERE-C 2012;;;194;197;
Salehie M., Pasquale L., Omoronyia I., Nuseibeh B.;Adaptive security and privacy in smart grids: A software engineering vision;2012;2012 1st International Workshop on Software Engineering Challenges for the Smart Grid, SE-SmartGrids 2012;;;46;49;
Sun W., Zhang C., Wang R.;Multimem: Retrofitting system availability via a lightweight binary translation framework;2012;2012 4th International Symposium on Information Science and Engineering, ISISE 2012;;;473;476;
Acher M., Collet P., Lahire P., Moisan S., Rigault J.-P.;Modeling variability from requirements to runtime;2011;16th IEEE International Conference on Engineering of Complex Computer Systems, ICECCS 2011;;;77;86;
Asirelli P., Ter Beek M.H., Fantechi A., Gnesi S., Mazzanti F.;Design and validation of variability in product lines;2011;2nd International Workshop on Product Line Approaches in Software Engineering, PLEASE 2011, Co-located with ICSE 2011;;;25;30;
Barrère M., Badonnel R., Festor O.;Supporting vulnerability awareness in autonomic networks and systems with OVAL;2011;2011 7th International Conference on Network and Service Management, CNSM 2011;;;;;
Dordowsky F., Bridges R., Tschope H.;Implementing a software product line for a complex avionics system;2011;15th International Software Product Line Conference, SPLC 2011;;;241;250;
Hidaka H.;Evolution of embedded flash memory technology for MCU;2011;2011 IEEE International Conference on Integrated Circuit Design and Technology, ICICDT 2011;;;;;
Hutchesson S., McDermid J.;Towards cost-effective high-assurance software product lines: The need for property-preserving transformations;2011;15th International Software Product Line Conference, SPLC 2011;;;55;64;
Kȩpa K., Morgan F., Athanas P.;ERDB: An Embedded Routing Database for reconfigurable systems;2011;21st International Conference on Field Programmable Logic and Applications, FPL 2011;;;195;200;
Kiss D.K.;Intelligent priority ceiling protocol for scheduling;2011;3rd IEEE International Symposium on Logistics and Industrial Informatics, LINDI 2011;;;105;109;
Lence R., Fuentes L., Pinto M.;Quality attributes and variability in AO-ADL software architectures;2011;5th European Conference on Software Architecture, ECSA 2011 - Workshop on Traceability, Dependencies and Software Architecture, TDSA 2011, 1st International Workshop on Software Architecture Variability, SAVA 2011;;;;;
Li D.;Identifying best practice by analyzing the evolution of the FISCAN MTMSIS software product line;2011;2nd International Workshop on Product Line Approaches in Software Engineering, PLEASE 2011, Co-located with ICSE 2011;;;40;44;
Li D., Weiss D.M.;Adding value through software product line engineering: The evolution of the FISCAN software product lines;2011;15th International Software Product Line Conference, SPLC 2011;;;213;222;
Mellado D., Fernández-Medina E., Piattini M.;Security requirements engineering framework for software product lines;2011;16th Conference on Software Engineering and Databases, JISBD 2011;;;687;688;
Nolan A.J., Abrahão S., Clements P., McGregor J.D., Cohen S.;Towards the integration of quality attributes into a software product line cost model;2011;15th International Software Product Line Conference, SPLC 2011;;;203;212;
Peake I.D., Schmidt H.W.;Systematic simplicity-accuracy tradeoffs in parameterised contract models;2011;7th Int. ACM SIGSOFT Conf. on the Quality of Software Archit., QoSA 2011 and the 2nd ACM SIGSOFT Int. Symp. on Archit. Critical Syst., ISARCS 2011, Part of the 2011 Federated Events on Component-Based Software Eng. and Software Archit., CompArch'11;;;95;104;
Tanimoto S., Hiramoto M., Iwashita M., Sato H., Kanai A.;Risk management on the security problem in cloud computing;2011;1st ACIS/JNU International Conference on Computers, Networks, Systems, and Industrial Engineering, CNSI 2011;;;147;152;
Trujillo S., Hamid B., Blanco M., Alonso I., Gonzalez D., Zhang H.;Towards variability support for security and dependability patterns: A case study;2011;15th International Software Product Line Conference, SPLC'11;;;;;
Zhang H., Lin G.;Remote intelligent monitoring system based on CAN fieldbus;2011;2011 International Conference on Electronics, Communications and Control, ICECC 2011;;;384;387;
Bettini L., Damiani F., Schaefer I.;Implementing software product lines using traits;2010;25th Annual ACM Symposium on Applied Computing, SAC 2010;;;2096;2102;
Bosch J.;Architecture challenges for software ecosystems;2010;4th European Conference on Software Architecture: Doctoral Symposium, Industrial Track and Workshops, ECSA 2010;;;93;95;
De M. Rodrigues E., Viccari L.D., Zorzo A.F., Gimenes I.M.;PLeTs-test automation using Software Product Lines and Model Based Testing;2010;22nd International Conference on Software Engineering and Knowledge Engineering, SEKE 2010;;;483;488;
Pimentel J., Santos E., Castro J.;Conditions for ignoring failures based on a requirements model;2010;22nd International Conference on Software Engineering and Knowledge Engineering, SEKE 2010;;;48;53;
Sato M.;Creating next generation cloud computing operation support services by social OSS: Contribution with telecom NGN experience;2010;19th IEEE International Workshops on Enabling Technologies: Infrastructure for Collaborative Enterprises, WETICE 2010;;;82;87;
Satzger B., Bagci F., Ungerer T.;A novel constraint satisfaction problem solver for self-configuring distributed systems with highly dynamic behavior;2010;2010 6th IEEE World Congress on Computational Intelligence, WCCI 2010 - 2010 International Joint Conference on Neural Networks, IJCNN 2010;;;;;
Siegmund N., Feigenspan J., Soffner M., Fruth J., Köppen V.;Challenges of secure and reliable data management in heterogeneous environments;2010;1st International Workshop on Digital Engineering, IWDE 2010;;;17;24;
Trujillo S., Perez A., Gonzalez D., Hamid B.;Towards the integration of advanced engineering paradigms into RCES: Raising the issues for the safety-critical model-driven product-line case;2010;International Workshop on Security and Dependability for Resource Constrained Embedded Systems (Secure and Dependable RCES by Design), S and D4RCES - 2010, in Conjunction with SAFECOMP 2010 Conference;;;;;
Weyns D., Capilla R.;Current and emerging topics in software architecture (ECSA 2010 Workshops Summary);2010;4th European Conference on Software Architecture: Doctoral Symposium, Industrial Track and Workshops, ECSA 2010;;;59;62;
Delaware B., Cook W., Batory D.;A machine-checked model of safe composition;2009;2009 Workshop on Foundations of Aspect-Oriented Languages, FOAL '09, Co-located with the 8th International Conference on Aspect-Oriented Software Development, AOSD.09;;;31;35;
Delaware B., Cook W.R., Batory D.;Fitting the pieces together: A machine-checked model of safe composition;2009;Joint 12th European Software Engineering Conference and 17th ACM SIGSOFT Symposium on the Foundations of Software Engineering, ESEC-FSE'09;;;243;252;
Macias N.J., Athanas P.M.;Architecturally-enforced InfoSec in a general-purpose self-configurable system;2009;2009 International Symposium on Bio-inspired, Learning, and Intelligent Systems for Security, BLISS 2009;;;71;76;
Mellado D., Rodríguez J., Fernández-Medina E., Piattini M.;Automated support for security requirements engineering in software product line domain engineering;2009;International Conference on Availability, Reliability and Security, ARES 2009;;;224;231;
Nguyen Q.L.;Non-functional requirements analysis modeling for software product lines;2009;2009 ICSE Workshop on Modeling in Software Engineering, MiSE 2009;;;56;61;
Tani Y.;Recent activities within IEC TC65/SC65A;2009;ICROS-SICE International Joint Conference 2009, ICCAS-SICE 2009;;;1419;1422;
Afonso F., Silva C., Brito N., Montenegro S., Tavares A.;Aspect-oriented fault tolerance for real-time embedded systems;2008;7th Workshop on Aspects, Components, and Patterns for Infrastructure Software ACP4IS'08 H held at the 7th International Conference on Aspect-Oriented Software Development, AOSD;;;;;
Aoyama M., Yoshino A.;AORE (aspect-oriented requirements engineering) methodology for automotive software product lines;2008;15th Asia-Pacific Software Engineering Conference, APSEC 2008;;;203;210;
Blackwell C.;A multi-layered security architecture for modelling critical infrastructure;2008;7th European Conference on Information Warfare and Security 2008, ECIW 2008;;;17;24;
Etxeberria L., Sagardui G.;Evaluation of quality attribute variability in software product families;2008;15th IEEE International Conference and Workshops on the Engineering of Computer-Based Systems, ECBS 2008;;;255;264;
Fuentes L., Gamez N.;A feature model of an aspect-oriented middleware family for pervasive systems;2008;Next Generation Aspect Oriented Middleware Workshop, NAOMI 2008 - 7th International Conference on Aspect-Oriented Software Development, AOSD 200;;;11;16;
Kästner C., Apel S.;Type-checking software product lines -A formal approach;2008;ASE 2008 - 23rd IEEE/ACM International Conference on Automated Software Engineering;;;258;267;
Kim C.H.P., Kästner C., Batory D.;On the modularity of feature interactions;2008;ACM SIGPLAN 7th International Conference on Generative Programming and Component Engineering, GPCE'08;;;23;33;
Mellado D., Fernandez-Medina E., Piattini M.;Security requirements variability for software product lines;2008;3rd International Conference on Availability, Security, and Reliability, ARES 2008;;;1413;1420;
Mellado D., Fernández-Medina E., Piattini M.;Security requirements engineering process for software product lines: A case study;2008;3rd International Conference on Software Engineering Advances, ICSEA 2008;;;1;6;
Mellado D., Fernández-Medina E., Piattini M.;Security requirements in software product lines;2008;International Conference on Security and Cryptography, SECRYPT 2008;;;442;449;
Muñoz A., Serrano D., Maña A.;Secure profiles as a cornerstone in emerging ambient intelligence scenarios;2008;2nd International Conference on Ambient Intelligence Developments, AmI.d 2007;;;34;46;
Niemelä E., Evesti A., Savolainen P.;Modeling quality attribute variability;2008;ENASE 2008 - 3rd International Conference on Evaluation of Novel Approaches to Software Engineering;;;169;176;
Spring R.C., Freudenthal E.A.;Sloth-NFS and the possibility of using fuzzy control to optimize cache management;2008;2008 Annual Meeting of the North American Fuzzy Information Processing Society, NAFIPS 2008;;;;;
Xin-sheng W., Yong-zhao Z., Liang-min W.;STCP: Secure topology control protocol for wireless sensor networks based on hexagonal mesh;2008;2008 International Conference on Wireless Communications, Networking and Mobile Computing, WiCOM 2008;;;;;
Blackwell C.;The layered security model: Analysis of systems from the conceptual, logical and physical viewpoints;2007;6th European Conference on Information Warfare and Security 2007, ECIW 2007;;;27;36;
Chen H., Hariri S.;An evaluation scheme of adaptive configuration techniques;2007;22nd IEEE/ACM International Conference on Automated Software Engineering, ASE'07;;;493;496;
Dobre C.M., Voicu R., Muram A., Legrand I.C.;An agent based framework to monitor and control high performance data transfers;2007;EUROCON 2007 - The International Conference on Computer as a Tool;;;453;458;
Liu J.;Handling safety-related feature interaction in safety-critical product lines;2007;29th International Conference on Software Engineering, ICSE 2007;;;85;86;
Liu J., Dehlinger J., Sun H., Lutz R.;State-based modeling to support the evolution and maintenance of safety-critical software product lines;2007;14th Annual IEEE International Conference and Workshops on the Engineering of Computer-Based Systems, ECBS 2007;;;596;605;
Mellado D., Fernández-Medina E., Piattini M.;SREPPLine: Towards a security requirements engineering process for software product lines;2007;"5th International Workshop on Security in Information Systems - WOSIS 2007; In Conjunction with ICEIS 2007";;;220;232;
Myllärniemi V., Raatikainen M., Männistö T.;Using a configurator for predictable component composition;2007;33rd EUROMICRO Conference on Software Engineering and Advanced Applications, SEAA 2007;;;47;55;
Noda A., Nakanishi T., Fukuda A., Kitasuka T.;Introducing fault tree analysis into product line software engineering for exception handling feature exploitation;2007;IASTED International Conference on Software Engineering, SE 2007;;;229;234;
Seifert C., Steenson R., Welch I., Komisarczuk P., Endicott-Popovsky B.;Capture - A behavioral analysis tool for applications and documents;2007;7th Annual Digital Forensic Research Workshop, DFRWS 2007;;;;;
Thaker S., Batory D., Kitchin D., Cook W.;Safe composition of product lines;2007;GPCE'07 - 6th International Conference on Generative Programming and Component Engineering;;;95;104;
Mayer D.W.H.;EURO GIS - GIS applications for vertical markets exemplified by agricultural applications as model for any vertical market;2006;4th World Congress on Computers in Agriculture and Natural Resources;;;737;740;
Needham D., Jones S.;A software fault tree metric;2006;ICSM 2006: 22nd IEEE International Conference on Software Maintenance;;;401;410;
Gaedke M., Meinecke J., Nussbaumer M.;A modeling approach to federated identity and access management;2005;14th International World Wide Web Conference, WWW2005;;;1156;1157;
Chadha R.;Applications of policy-based network management;2004;2004 IEEE/IFIP Network Operations and Management Symposium: Managing Next Generation Convergence Networks and Services, NOMS 2004;;;907;908;
Mazzucchelli L., Pace M.;Extensible interfaces for mobile devices in an advanced platform for infomobility services;2004;Working Conference on Advanced Visual Interfaces, AVI 2004;;;450;453;
Pike S.Y., Osborne P.;Wi-Fi and handhelds - Perfect synergy;2004;Conference on Human Factors in Computing Systems, CHI EA 2004;;;1004;1018;
Vigna G., Valeur F., Kemmerer R.A.;Designing and implementing a family of intrusion detection systems;2003;9th European Software Engineering Conference Held Jointly with 11th ACM SIGSOFT International Symposium on Foundations of Software Engineering, ESEC/FSE-11;;;88;97;
Vigna G., Valeur F., Kemmerer R.A.;Designing and Implementing a Family of Intrusion Detection Systems;2003;Proceedings of the Joint 9th European Software Engineering Conference (ESEC) and 11th SIGSOFT Symposium on the Foundations of Software Engineering (FSE-11);;;88;97;
Bratthall L.G., Van Der Geest R., Hofmann H., Jellum E., Korendo Z., Martinez R., Orkisz M., Zeidler C., Andersson J.S.;Integrating hundred's of products through one architecture-The industrial IT architecture;2002;Proceedings-International Conference on Software Engineering;;;604;614;
Faulk S.R.;Product-Line Requirements Specification (PRS): An approach and case study;2001;5th IEEE International Symposium on Requirements Engineering;;;48;55;
Thompson J.M., Heimdahl M.P.E.;Extending the product family approach to support n-dimensional and hierarchical product lines;2001;5th IEEE International Symposium on Requirements Engineering;;;56;64;
Wijnstra J.G.;Quality attributes and aspects of a medical product family;2001;Proceedings of the Hawaii International Conference on System Sciences;;;284;;
Berrebi J.;How to use systems architecture to specify the operational perimeter of an innovative product line;2012;22nd Annual International Symposium of the International Council on Systems Engineering, INCOSE 2012 and the 8th Biennial European Systems Engineering Conference 2012, EuSEC 2012;1;;84;99;
Braga R.T.V., Castelo Branco K.R.L.J., Trindade O., Lee J.;Incorporating certification in feature modelling of an unmanned aerial vehicle product line;2012;16th International Software Product Line Conference, SPLC 2012;1;;249;258;
Li D., Chang C.K.;Initiating and institutionalizing software product line engineering: From bottom-up approach to top-down practice;2009;2009 33rd Annual IEEE International Computer Software and Applications Conference, COMPSAC 2009;1;;53;60;
Rushinek A., Rushinek S.;Data encryption features for computer hardware and software profitability: I/O ports, expansion slots, algorithms, cyphers and security;1991;Computers and Security;10;4;345;357;
Helo P.T.;Product configuration analysis with design structure matrix;2006;Industrial Management and Data Systems;106;7;997;1011;
de Vries T.P.;The implementation of TSS;1992;Computers and Security;11;4;315;325;
Lu C., Fitzek F., Eggers P., Jensen O., Pedersen G., Larsen T.;Terminal-embedded beamforming for wireless local area networks;2008;IEEE Wireless Communications;15;2;82;91;
Dhar S.;Securing and hardening red†hat linux;2006;Information Systems Security;15;1;21;30;
Apel S., Kästner C., Größlinger A., Lengauer C.;Type safety for feature-oriented product lines;2010;Automated Software Engineering;17;3;251;300;
Aziz B., Foley S.N., Herbert J., Swart G.;Configuring storage-area networks using mandatory security;2009;Journal of Computer Security;17;2;191;210;
Eriksson L.-H.;The GTO Toolset and Method;2007;Electronic Notes in Theoretical Computer Science;185;SPEC. ISS.;77;91;
Ihme T.;Scrum adoption and architectural extensions in developing new service applications of large financial IT systems;2013;Journal of the Brazilian Computer Society;19;3;257;274;
Fragal V.H., Silva R.F., Gimenes I.M.S., Oliveira Jr. E.A.;Application engineering for embedded systems :transforming sysml specification to simulink within a product-line based approach;2013;15th International Conference on Enterprise Information Systems, ICEIS 2013;2;;94;101;
Silva R.F., Fragal V.H., Oliveira E.A., Gimenes I.M.S., Oquendo F.;SyMPLES: A sysML-based approach for developing embedded systems software product lines;2013;15th International Conference on Enterprise Information Systems, ICEIS 2013;2;;257;264;
Parra C., Giral L., Infante A., Cortés C.;Extractive SPL adoption using multi-level variability modeling;2012;16th International Software Product Line Conference, SPLC 2012;2;;99;106;
Villela K., Arif T., Zanardini D.;Towards product configuration taking into account quality concerns;2012;16th International Software Product Line Conference, SPLC 2012;2;;82;89;
Istoan P., Nain G., Perrouin G., Jézéquel J.-M.;Dynamic software product lines for service-based systems;2009;IEEE 9th International Conference on Computer and Information Technology, CIT 2009;2;;193;198;
Kelly E., Bloesch M.;Texas petrochemicals LP case study: TPC ECASTSM;2002;2002 Computer Conference Technical Papers, National Petrochemical and Refiners Association;2002;;;;
Northrop L.;Let's teach architecting high quality software;2006;19th Conference on Software Engineering Education and Training, CSEE and T 2006;2006;;5;;
Trask B., Paniscotti D., Roman A., Bhanot V.;Using model-driven engineering to complement software product line engineering in developing software defined radio components and applications;2006;21st Annual ACM SIGPLAN Conference on Object-oriented Programming Systems, Languages, and Applications, OOPSLA 2006;2006;;846;853;
Kästner C., Apel S., Thüm T., Saake G.;Type checking annotation-based product lines;2012;ACM Transactions on Software Engineering and Methodology;21;3;;;
Jones L.G., Northrop L.M.;Clearing the Way for Software Product Line Success;2010;IEEE Software;27;3;22;28;
Iossifov V., Totev T., Tochatschek A.;Experiences in VoIP telephone network security policy at the University of Applied Sciences (FHTW) Berlin;2007;International Conference on Computer Systems and Technologies and Workshop for PhD Students in Computing, CompSysTech '07;285;;;;
Rayner T.J., Thorson B.D., Beevor S., West R., Krauss R.A.;Explosives detection with quadrupole resonance analysis;1997;Physics-Based Technologies for the Detection of Contraband;2936;;22;30;
Wang K.-Q., Wang X.-Y., Zhang C., Yin Q.-F.;Failure analysis of safety system;2009;Dongbei Daxue Xuebao/Journal of Northeastern University;30;SUPPL.;198;202;
Mellado D., Fernández-Medina E., Piattini M.;Towards security requirements management for software product lines: A security domain requirements engineering process;2008;Computer Standards and Interfaces;30;6;361;371;
Bridges R., Dordowsky F., Tschöpe H.;Implementing a software product line for a complex avionics system in Ada 83;2011;Ada User Journal;32;2;107;114;
Moll B., Beaney L.;Design and test of the natural successor of conventional NVGs: VIPER3;1998;Helmet- and Head-Mounted Displays III;3362;;347;358;
Schwanke R.W., Lutz R.R.;Experience with the architectural design of a modest product family;2004;Software - Practice and Experience;34;13;1273;1296;
Mellado D., Mouratidis H., Fernández-Medina E.;Secure Tropos framework for software product lines requirements engineering;2014;Computer Standards and Interfaces;36;4;711;722;
Palousis N., Luong L., Abhary K.;An integrated LCA/LCC framework for assessing product sustainability risk;2008;6th International Conference on Computer Simulation Risk Analysis and Hazard Mitigation, Risk Analysis 2008;39;;121;128;
Shooter S.B., Cohen S., Williams C.;Assessing commonality and differentiation for packaging family planning with application to medication labels;2008;ASME 2008 International Design Engineering Technical Conferences and Computers and Information in Engineering Conference, IDETC/CIE2008;4;;67;76;
Lu C., Fitzek F.H.P., Eggers P.C.F.;Capacity enhancement by terminal originated beamforming for wireless local area networks;2007;Wireless Personal Communications;43;2;573;587;
Rojas Arciniegas A.J., Kim H.M.;Incorporating security considerations into optimal product architecture and component sharing decision in product family design;2012;Engineering Optimization;44;1;55;74;
Basak D., Toshniwal R., Maskalik S., Sequeira A.;Virtualizing networking and security in the cloud;2010;Operating Systems Review (ACM);44;4;86;94;
Arciniegas A.J.R., Kim H.M.;Incorporating security considerations into optimal product architecture and component sharing decision in product family design;2010;ASME 2010 International Design Engineering Technical Conferences and Computers and Information in Engineering Conference, IDETC/CIE2010;5;;507;517;
Shooter S.B., Cohen S.W.;The commonality differentiation index using prominence of visual information for medication package family planning;2010;ASME 2010 International Design Engineering Technical Conferences and Computers and Information in Engineering Conference, IDETC/CIE2010;5;;231;237;
Snook C., Poppleton M., Johnson I.;Rigorous engineering of product-line requirements: A case study in failure management;2008;Information and Software Technology;50;1-2;112;129;
Swimmer M.;Using the danger model of immune systems for distributed defense in modern data networks;2007;Computer Networks;51;5;1315;1333;
Huckle H.E., Smith P.J.;UVOT Autonomous Operations;2004;X-Ray and Gamma-Ray Instrumentation for Astronomy XIII;5165;;298;309;
Mellado D., Fernández-Medina E., Piattini M.;Security requirements engineering framework for software product lines;2010;Information and Software Technology;52;10;1094;1117;
Kubalík P., Kubátová H.;Dependable design technique for system-on-chip;2008;Journal of Systems Architecture;54;3-4;452;464;
Ridenoure R.;RocketCam™ systems for providing situational awareness on rockets, spacecraft and other remote platforms;2004;Spaceborne Sensors;5418;;94;103;
Guana V., Correal D.;Improving software product line configuration: A quality attribute-driven approach;2013;Information and Software Technology;55;3;541;562;
Mahdavi-Hezavehi S., Galster M., Avgeriou P.;Variability in quality attributes of service-based software systems: A systematic literature review;2013;Information and Software Technology;55;2;320;343;
Thiel N.;Jena, the city of optics: Yesterday-today-tomorrow;2005;Optical Design and Engineering II;5962;2;;;
Thiel N.;Jena, the city of optics: Yesterday-today-tomorrow;2005;Advances in Optical Thin Films II;5963;;;;
Thiel N.;Jena, the city of optics: Yesterday-today-tomorrow;2005;Detectors and Associated Signal Processing II;5964;;;;
Thiel N.;Jena, the city of optics: Yesterday-today-tomorrow;2005;Optical Fabrication, Testing, and Metrology II;5965;;;;
Guo J., Wang Y., Zhang Z., Nummenmaa J., Niu N.;Model-driven approach to developing domain functional requirements in software product lines;2012;IET Software;6;4;391;401;
Maxion R.A., Reeder R.W.;Improving user-interface dependability through mitigation of human error;2005;International Journal of Human Computer Studies;63;1-2;25;50;
Zelkowitz M.V., Rus I.;Defect evolution in a product line environment;2004;Journal of Systems and Software;70;1-2;143;154;
Feng Q., Lutz R.R.;Bi-directional safety analysis of product lines;2005;Journal of Systems and Software;78;2;111;127;
Liu J., Dehlinger J., Lutz R.;Safety analysis of software product lines using state-based modeling;2007;Journal of Systems and Software;80;11;1879;1892;
Needham D.M., Jones S.A.;A software fault tree key node metric;2007;Journal of Systems and Software;80;9;1530;1540;
Black S.H., Sessler T., Gordon E., Kraft R., Kocian T., Lamb M., Williams R., Yang T.;Uncooled detector development at Raytheon;2011;Infrared Technology and Applications XXXVII;8012;;;;
Ballesteros J., Ayala I., Caro-Romero J.R., Amor M., Fuentes L.;Evolving dynamic self-adaptation policies of mHealth systems for long-term monitoring;2020;Journal of Biomedical Informatics;108;;;;Academic Press
Park H.J., Lee Y.K.;Configuring personalized directories in file sharing systems;2017;Advanced Science Letters;23;10;9584;9588;American Scientific Publishers
Kim J., Saidani M., Kim H.M.;Optimal product family architecture design and commonality decision for sustainability and intellectual property protection;2020;ASME 2020 International Design Engineering Technical Conferences and Computers and Information in Engineering Conference, IDETC-CIE 2020;11B-2020;;;;ASME
Takai S.;An Approach to Integrate Commonality and Product Family Design with Inventory Decisions;2019;Journal of Mechanical Design, Transactions of the ASME;141;3;;;ASME
Smitha P.S., Sankarram N.;A framework for safe composable testing model for multiple applications testing environment;2014;Journal of Theoretical and Applied Information Technology;63;2;292;297;Asian Research Publishing Network (ARPN)
Shooter S.B., Cohen S., Williams C.;Assessing commonality and differentiation for packaging family planning with application to medication labels;2009;2008 ASME International Design Engineering Technical Conferences and Computers and Information in Engineering Conference, DETC 2008;4;;67;76;ASME
Bordis T., Runge T., Knüppel A., Thüm T., Schaefer I.;Variational correctness-by-construction;2020;14th International Working Conference on Variability Modelling of Software-Intensive Systems, VaMoS 2020;;;;;ACM
ter Beek M.H., Legay A., Lafuente A.L., Vandin A.;Variability meets Security: Quantitative security modeling and analysis of highly customizable attack scenarios;2020;14th International Working Conference on Variability Modelling of Software-Intensive Systems, VaMoS 2020;;;;;ACM
Ali S., Arcaini P., Hasuo I., Ishikawa F., Lee N.-Z.;Towards a framework for the analysis of multi-product lines in the automotive domain;2019;13th International Workshop on Variability Modelling of Software-Intensive Systems, VAMOS 2019;;;;;ACM
ter Beek M.H., Legay A.;Quantitative variability modeling and analysis;2019;13th International Workshop on Variability Modelling of Software-Intensive Systems, VAMOS 2019;;;;;ACM
Muniz R., Braz L., Gheyi R., Andrade W., Fonseca B., Ribeiro M.;A qalitative analysis of variability weaknesses in configurable systems with #ifdefs;2018;12th International Workshop on Variability Modelling of Software-Intensive Systems, VaMoS 2018;;;51;58;ACM
Stute M., Kreitschmann D., Hollick M.;One billion apples' secret sauce: Recipe for the apple wireless direct link Ad hoc protocol;2018;24th Annual International Conference on Mobile Computing and Networking, MobiCom 2018;;;529;543;ACM
Bezzateev S., Afanasyeva A., Voloshina N., Ometov A.;Multi-factor authentication for wearables: Configuring system parameters with risk function;2017;2nd International Conference on Advanced Wireless Information, Data, and Communication Technologies, AWICT 2017;;;;;ACM
Bezzateev S., Voloshina N., Afanasyeva A., Ometov A.;Multi-factor Authentication for Wearables: Configuring system parameters with risk function;2017;2nd International Conference on Advanced Wireless Information, Data, and Communication Technologies, AWICT 2017;;;;;ACM
Kästner C., Pfeffer J.;Limiting recertification in highly configurable systems analyzing interactions and isolation among configuration options;2014;2014 Symposium and Bootcamp on the Science of Security, HotSoS 2014;;;;;ACM
Lerner L.W., Franklin Z.R., Baumann W.T., Patterson C.D.;Using high-level synthesis and formal analysis to predict and preempt attacks on industrial control systems;2014;2014 ACM/SIGDA International Symposium on Field Programmable Gate Arrays, FPGA 2014;;;209;212;ACM
Peltsverger S., Zheng G.;A virtual environment for teaching technical aspects of privacy;2013;2013 Information Security Curriculum Development Conference, InfoSec CD 2013;;;49;52;ACM
Mesa O., Vieira R., Viana M., Durelli V.H.S., Cirilo E., Kalinowski M., Lucena C.;Understanding vulnerabilities in plugin-based web systems: An exploratory study of word press;2018;22nd International Systems and Software Product Line Conference, SPLC 2018;1;;149;159;ACM
Horcas J.-M., Pinto M., Fuentes L.;Green configurations of functional quality attributes;2017;21st International Systems and Software Product Line Conference, SPLC 2017;1;;79;83;ACM
Krüger J., Nielebock S., Krieter S., Diedrich C., Leich T., Saake G., Zug S., Ortmeier F.;Beyond software product lines: Variability modeling in cyber-physical systems;2017;21st International Systems and Software Product Line Conference, SPLC 2017;1;;237;241;ACM
Swanson J., Cohen M.B., Dwyer M.B., Garvin B.J., Firestone J.;Beyond the rainbow: Self-adaptive failure avoidance in configurable systems;2014;22nd ACM SIGSOFT International Symposium on the Foundations of Software Engineering, FSE 2014;16-21-November-2014;;377;388;ACM
Iida T., Matsubara M., Yoshimura K., Kojima H., Nishino K.;PLE for automotive braking system with management of impacts from equipment interactions;2016;20th International Systems and Software Product Line Conference, SPLC 2016;16-23-September-2016;;232;241;ACM
Sion L., Van Landuyt D., Yskout K., Joosen W.;Towards systematically addressing security variability in software product lines;2016;20th International Systems and Software Product Line Conference, SPLC 2016;16-23-September-2016;;342;343;ACM
Basile D., Di Giandomenico F., Gnesi S.;FMCAT: Supporting dynamic service-based product lines;2017;21st International Systems and Software Product Line Conference, SPLC 2017;2;;3;8;ACM
Domis D., Adler R., Becker M.;Integrating variability and safety analysis models using commercial UML-based tools;2015;19th International Software Product Line Conference, SPLC 2015;20-24-July-2015;;225;234;ACM
Käßmeyer M., Schulze M., Schurius M.;A process to support a systematic change impact analysis of variability and safety in automotive functions;2015;19th International Software Product Line Conference, SPLC 2015;20-24-July-2015;;235;244;ACM
Lachmann R., Lity S., Lischke S., Beddig S., Schulze S., Schaefer I.;Delta-Oriented test case prioritization for integration testing of software product lines;2015;19th International Software Product Line Conference, SPLC 2015;20-24-July-2015;;81;90;ACM
Mcgee E.T., Mcgregor J.D.;Composition of proof-carrying architectures for cyber-physical systems;2015;19th International Software Product Line Conference, SPLC 2015;20-24-July-2015;;419;426;ACM
Ferreira G., Kästner C., Pfeffer J., Apel S.;Characterizing complexity of highly-configurable systems with variational call graphs;2015;Symposium and Bootcamp on the Science of Security, HotSoS 2015;21-22-April-2015;;;;ACM
Bécan G., Acher M., Jézéquel J.-M., Menguy T.;On the variability secrets of an online video generator;2015;9th International Workshop on Variability Modelling of Software-Intensive Systems, VaMoS 2015;21-23-January-2015;;96;102;ACM
Benduhn F., Thüm T., Lochau M., Leich T., Saake G.;A survey on modeling techniques for formal behavioral verification of software product lines;2015;9th International Workshop on Variability Modelling of Software-Intensive Systems, VaMoS 2015;21-23-January-2015;;80;87;ACM
Babun L., Aksu H., Uluagac A.S.;A system-level behavioral detection framework for compromised CPS devices: Smart-grid case;2019;ACM Transactions on Cyber-Physical Systems;4;2;;;ACM
Thüm T., Knüppel A., Krüger S., Bolle S., Schaefer I.;Feature-oriented contract composition;2019;23rd International Systems and Software Product Line Conference, SPLC 2019, co-located with the 13th European Conference on Software Architecture, ECSA 2019;A;;;;ACM
Wolschke C., Becker M., Schneickert S., Adler R., MacGregor J.;Industrial perspective on reuse of safety artifacts in software product lines;2019;23rd International Systems and Software Product Line Conference, SPLC 2019, co-located with the 13th European Conference on Software Architecture, ECSA 2019;A;;;;ACM
Rosiak K., Urbaniak O., Schlie A., Seidl C., Schaefer I.;Analyzing variability in 25 years of industrial legacy software: An experience report;2019;23rd International Systems and Software Product Line Conference, SPLC 2019;B;;;;ACM
Munoz D.-J., Pinto M., Fuentes L.;Green software development and research with the HADAS toolkit;2017;11th European Conference on Software Architecture, ECSA 2017;Part F130530;;205;211;ACM
Javed M.A., Gallina B., Carlsson A.;Towards variant management and change impact analysis in safety-oriented process-product lines;2019;34th Annual ACM Symposium on Applied Computing, SAC 2019;Part F147772;;2372;2375;ACM
Nešić D., Nyberg M., Gallina B.;Constructing product-line safety cases from contract-based specifications;2019;34th Annual ACM Symposium on Applied Computing, SAC 2019;Part F147772;;2022;2031;ACM
Abbas M., Jongeling R., Lindskog C., Enoiu E.P., Saadatmand M., Sundmark D.;Product line adoption in industry: an experience report from the railway domain;2020;24th ACM Conference on Systems and Software Product Line, SPLC 2020;Part F164267-A;;130;141;ACM
Aouzal K., Hafiddi H., Dahchour M.;Policy-driven middleware for multi-tenant saas services configuration;2020;24th ACM Conference on Systems and Software Product Line, SPLC 2020;Part F164267-A;;303;;ACM
Varela-Vaca Á.J., Gasca R.M., Carmona-Fombella J.A., Gómez-López M.T.;AMADEUS: Towards the AutoMAteD secUrity teSting;2020;24th ACM Conference on Systems and Software Product Line, SPLC 2020;Part F164267-A;;119;129;ACM
Kenner A.;Model-Based Evaluation of Vulnerabilities in Software Systems;2020;24th ACM Conference on Systems and Software Product Line, SPLC 2020;Part F164402-B;;112;119;ACM
Tomashchuk O.;Threat and Risk Management Framework for eHealth IoT Applications;2020;24th ACM Conference on Systems and Software Product Line, SPLC 2020;Part F164402-B;;120;126;ACM
Yie A., Casallas R., Deridder D., Van Der Straeten R.;Multi-step concern refinement;2008;Early Aspects Workshop: Early Aspects and Software Product Lines, EA held in Conjunction with the 7th International Conference on Aspect-Oriented Software Development, AOSD;;;;;ACM
Suresh D.C., Najjar W.A., Vahid F., Villarreal J.R., Stitt G.;Profiling tools for hardware/software partitioning of embedded applications;2003;Proceedings of the 2003 ACM SIGPLAN Conference on Languages, Compilers, and Tools for Embedded Systems;38;7;189;198;ACM
Bordis T., Runge T., Schaefer I.;Correctness-by-construction for feature-oriented software product lines;2020;19th ACM SIGPLAN International Conference on Generative Programming: Concepts and Experiences, GPCE 2020 - Co-located with SPLASH 2020;;;22;34;ACM
Pett T., Eichhorn D., Schaefer I.;Risk-based compatibility analysis in automotive systems engineering;2020;23rd ACM/IEEE International Conference on Model Driven Engineering Languages and Systems, MODELS-C 2020;;;189;198;ACM
Mansoor N., Saddler J.A., Silva B., Bagheri H., Cohen M.B., Farritor S.;Modeling and testing a family of surgical robots: An experience report;2018;26th ACM Joint European Software Engineering Conference and Symposium on the Foundations of Software Engineering, ESEC/FSE 2018;;;785;790;ACM
Nguyen D.T., Song C., Qian Z., Krishnamurthy S.V., Colbert E.J.M., McDaniel P.;IotSan: Fortifying the safety of IoT systems;2018;14th International Conference on Emerging Networking EXperiments and Technologies, CoNEXT 2018;;;191;203;ACM
Peldszus S., Strüber D., Jürjens J.;Model-based security analysis of feature-oriented software product lines;2018;17th ACM SIGPLAN International Conference on Generative Programming: Concepts and Experiences, GPCE 2018, co-located with SPLASH 2018;;;93;106;ACM
Carpenter T., Hatcliff J., Vasserman E.Y.;A Reference Separation Architecture for Mixed-Criticality Medical and IoT Devices;2017;1st ACM International Workshop on the Internet of Safe Things, SafeThings 2017;;;14;19;ACM
Da Mota Silveira Neto P.A., De Santana T.L., De Almeida E.S., Cavalcanti Y.C.;RiSE events - A testbed for software product lines experimentation;2016;1st International Workshop on Variability and Complexity in Software Design, VACE 2016;;;12;13;ACM
Kokaly S., Salay R., Sabetzadeh M., Chechik M., Maibaum T.;Model management for regulatory compliance: A position paper;2016;8th International Workshop on Modeling in Software Engineering, MiSE 2016;;;74;80;ACM
McGee E.T., McGregor J.D.;Using dynamic adaptive systems in safety-critical domains;2016;11th International Symposium on Software Engineering for Adaptive and Self-Managing Systems, SEAMS 2016;;;115;121;ACM
Meinicke J., Wong C.-P., Kästner C., Thüm T., Saake G.;On essential configuration complexity: Measuring interactions in highly-configurable systems;2016;31st IEEE/ACM International Conference on Automated Software Engineering, ASE 2016;;;483;494;ACM
Revell K., Allison C., Stanton N., Sears C.R.;Modelling distributed crewing with STAMP;2016;International Conference on Human-Computer Interaction in Aerospace, HCI-Aero 2016;;;;;ACM
Acher M., Bécan G., Combemale B., Baudry B., Jézéquel J.-M.;Product lines can jeopardize their trade secrets;2015;10th Joint Meeting of the European Software Engineering Conference and the ACM SIGSOFT Symposium on the Foundations of Software Engineering, ESEC/FSE 2015;;;930;933;ACM
Assunção W.K.G., Lopez-Herrejon R.E., Linsbauer L., Vergilio S.R., Egyed A.;Extracting variability-safe feature models from source code dependencies in system variants;2015;16th Genetic and Evolutionary Computation Conference, GECCO 2015;;;1303;1310;ACM
Behrang F., Cohen M.B., Orso A.;Users beware: Preference inconsistencies ahead;2015;10th Joint Meeting of the European Software Engineering Conference and the ACM SIGSOFT Symposium on the Foundations of Software Engineering, ESEC/FSE 2015;;;295;306;ACM
Höttger R., Igel B.;A concept of vector clock utilization in an iterative tracing approach for distributed embedded systems;2015;18th International Workshop on Software and Compilers for Embedded Systems, SCOPES 2015;;;92;96;ACM
Hudson T., Rudolph L.;Thunderstrike: EFI firmware bootkits for apple MacBooks;2015;8th ACM International Systems and Storage Conference, SYSTOR 2015;;;;;ACM
Myllärniemi V., Raatikainen M., Männistö T.;Representing and configuring security variability in software product lines;2015;11th International ACM SIGSOFT Conference on Quality of Software Architectures, QoSA 2015;;;1;10;ACM
Cleland-Huang J., Gotel O.C.Z., Hayes J.H., Mäder P., Zisman A.;Software traceability: Trends and future directions;2014;Future of Software Engineering Conference, FOSE 2014;;;55;69;ACM
Raschke W., Zilli M., Loinig J., Weiss R., Steger C., Kreiner C.;Embedding research in the industrial field: A case of a transition to a software product line;2014;2014 ACM International Workshop on Long-Term Industrial Collaboration on Software Engineering, WISE 2014 - Co-located with ASE 2014;;;3;8;ACM
Dehlinger J., Lutz R.R.;A product-line requirements approach to safe reuse in multi-agent systems;2005;4th International Workshop on Software Engineering for Large-Scale Multi-Agent Systems, SELMAS 2005;;;;;ACM
Dobbing B., Romanski G.;The Ravenscar tasking profile-experience report;1999;9th International Workshop on Real-Time Ada, IRTAW 1999;;;28;32;ACM
Lutz R.R.;Toward safe reuse of product family specifications;1999;1999 Symposium on Software Reusability, SSR 1999;;;17;26;ACM
Krejčí R., Lhotka L., Čeleda P., Špringl P.;Secure remote configuration of network devices a case study;2008;CESNET Conference 2008: Security, Middleware, and Virtualization - Glue of Future Networks;;;77;84;CESNET, z. s. p. o.
Oertel M., Schulze M., Peikenkamp T.;Reusing a functional safety concept in variable system architectures;2014;7th International Workshop on Model-Based Architecting and Construction of Embedded Systems, ACES-MB 2014, Co-located with ACM/IEEE 17th International Conference on Model Driven Engineering Languages and Systems, MoDELS 2014;1250;;16;25;CEUR-WS
Baumgart S., Fröberg J., Punnekkat S.;Enhancing model-based engineering of product lines by adding functional safety;2015;International Workshop on Modelling in Automotive Software Engineering, MASE 2015 - co-located with ACM/IEEE 18th International Conference on Model Driven Engineering Languages and Systems, MODELS 2015;1487;;53;62;CEUR-WS
Jumagaliyev A., Whittle J., Elkhatib Y.;Evolving multi-Tenant saas cloud applications using model-driven engineering;2016;10th Workshop on Models and Evolution, ME 2016;1706;;60;64;CEUR-WS
Nešić D., Nyberg M.;Verifying contract-based specifications of product lines using description logic;2018;31st International Workshop on Description Logics, DL 2018;2211;;;;CEUR-WS
Algawi A., Kiperberg M., Leon R., Zaidenberg N.;Using hypervisors to overcome structured exception handler attacks;2019;18th European Conference on Cyber Warfare and Security, ECCWS 2019;;;1;5;Curran Associates Inc.
Goggin R., Huang J., White E., Haugse E.;Challenges for SHM transition to future aerospace systems;2003;4th International Workshop on Structural Health Monitoring: From Diagnostics and Prognostics to Structural Health Management, IWSHM 2003;;;30;41;DEStech Publications
Tanhaei M., Habibi J., Mirian-Hosseinabadi S.-H.;Automating feature model refactoring: A Model transformation approach;2016;Information and Software Technology;80;;138;157;Elsevier
Rahman A., Mahdavi-Hezaveh R., Williams L.;A systematic mapping study of infrastructure as code research;2019;Information and Software Technology;108;;65;77;Elsevier
Sreenath S., Malik H., Husnu N., Kalaichelavan K.;Assessment and Use of Unmanned Aerial Vehicle for Civil Structural Health Monitoring;2020;11th International Conference on Ambient Systems, Networks and Technologies, ANT 2020 / 3rd International Conference on Emerging Data and Industry 4.0, EDI40 2020 / Affiliated Workshops;170;;656;663;Elsevier
Hong Z., Dai W., Luh H., Yang C.;Optimal configuration of a green product supply chain with guaranteed service time and emission constraints;2018;European Journal of Operational Research;266;2;663;677;Elsevier
Pessoa L., Fernandes P., Castro T., Alves V., Rodrigues G.N., Carvalho H.;Building reliable and maintainable Dynamic Software Product Lines: An investigation in the Body Sensor Network domain;2017;Information and Software Technology;86;;54;70;Elsevier
Horcas J.-M., Pinto M., Fuentes L.;Variability models for generating efficient configurations of functional quality attributes;2018;Information and Software Technology;95;;147;164;Elsevier
Bettini L., Damiani F., Schaefer I.;Implementing type-safe software product lines using parametric traits;2015;Science of Computer Programming;97;P3;282;308;Elsevier
Moonen L.;Towards evidence-based recommendations to guide the evolution of component-based product families;2015;Science of Computer Programming;97;P1;105;112;Elsevier
Horcas J.-M., Pinto M., Fuentes L.;An automatic process for weaving functional quality attributes using a software product line approach;2016;Journal of Systems and Software;112;;78;95;Elsevier
Thüm T., Knüppel A., Krüger S., Bolle S., Schaefer I.;Feature-oriented contract composition;2019;Journal of Systems and Software;152;;83;107;Elsevier
Iosif-Lazăr A.F., Wąsowski A.;Trustworthy variant derivation with translation validation for safety critical product lines;2016;Journal of Logical and Algebraic Methods in Programming;85;6;1154;1176;Elsevier
Sierla S., O'Halloran B.M., Nikula H., Papakonstantinou N., Tumer I.Y.;Safety analysis of mechatronic product lines;2014;Mechatronics;24;3;231;240;Elsevier
Seifert C., Steenson R., Welch I., Komisarczuk P., Endicott-Popovsky B.;Capture - A behavioral analysis tool for applications and documents;2007;Digital Investigation;4;SUPPL.;23;30;Elsevier
Lutz R.R.;Extending the product family approach to support safe reuse;2000;Journal of Systems and Software;53;3;207;217;Elsevier
De Oliveira A.L., Braga R.T.V., Masiero P.C., Papadopoulos Y., Habli I., Kelly T.;A model-based approach to support the automatic safety analysis of multiple product line products;2014;9th European Signal Processing Conference, EUSIPCO 1998;1998-January;;9;12;European Signal Processing Conference, EUSIPCO
Plaumann B., Krause D.;Methodical support for the dimensioning of variant lightweight structures under dynamic excitations;2014;13th International Design Conference, DESIGN 2014;2014-January;;1167;1178;Faculty of Mechanical Engineering and Naval Architecture
Pitruzzello S., Ahmad A., Maynard S.B.;A framework for mitigating leakage of competitively sensitive knowledge in start-ups;2017;28th Australasian Conference on Information Systems, ACIS 2017;;;;;Formal Power Series and Algebraic Combinatorics
Schwinn J.-P., Adler R., Kemmann S.;Combining safety engineering and product line engineering;2013;Multi-Conference on Software Engineering, SE 2013;P-215;;545;554;Gesellschaft fur Informatik (GI)
He F., Gao Y., Yin L.;Efficient software product-line model checking using induction and a SAT solver;2018;Frontiers of Computer Science;12;2;264;279;Higher Education Press
Kuilboer J.-P., Ashrafi N.;The internet of things architecture and impeded security;2016;2017 International Conferences on Information and Communication Technology, Society, and Human Beings, ICT 2016, Web Based Communities and Social Media, WBC 2016,  Big Data Analytics, Data Mining and Computational Intelligence, BIGDACI 2016 and Theory and Practice in Modern Computing, TPMC 2016;;;291;293;IADIS
Guski R., Dayka J.C., Distel L.N., Farrell W.B., Gdaniec K.A., Kelly M.J., Nelson M.A., Overby L.H., Robinson L.G.;Security on z/OS: Comprehensive, current, and flexible;2001;IBM Systems Journal;40;3;696;720;IBM Corporation
Lutz Robyn R., Helmer Guy G., Moseman Michelle M., Statezni David E., Tockey Stephen R.;Safety analysis of requirements for a product family;1998;Proceedings of the 1998 3rd International Conference on Requirements Engineering, ICRE;;;24;31;IEEE Comp Soc, Los Alamitos, CA, United States
Krieter S., Krüger J., Weichbrodt N., Sartakov V.A., Kapitza R., Leich T.;Towards secure dynamic product lines in the cloud;2018;40th ACM/IEEE International Conference on Software Engineering: New Ideas and Emerging Results, ICSE-NIER 2018;;;5;8;IEEE
Demuth A., Lopez-Herrejon R.E., Egyed A.;Automatic and incremental product optimization for software product lines;2014;7th IEEE International Conference on Software Testing, Verification and Validation, ICST 2014;;;31;40;IEEE
Hammani F.Z.;Survey of Non-Functional Requirements modeling and verification of Software Product Lines;2014;8th IEEE International Conference on Research Challenges in Information Science, IEEE RCIS 2014;;;;;IEEE
Barner S., DIewald A., Eizaguirre F., Vasilevskiy A., Chauvel F.;Building product-lines of mixed-criticality systems;2016;2016 Forum on Specification and Design Languages, FDL 2016;0;;;;IEEE
Varshosaz M., Khosravi R.;Model checking of software product lines in presence of nondeterminism and probabilities;2014;21st Asia-Pacific Software Engineering Conference, APSEC 2014;1;;63;70;IEEE
Wolthusen S.D.;Security policy enforcement at the file system level in the Windows NT operating system family;2001;17th Annual Computer Security Applications Conference, ACSAC 2001;2001-January;;55;63;IEEE
Lu D., Lutz R.R.;Fault contribution trees for product families;2002;13th International Symposium on Software Reliability Engineering, ISSRE 2002;2002-January;;231;242;IEEE
De Oliveira A.L., Braga R.T.V., Masiero P.C., Papadopoulos Y., Habli I., Kelly T.;A Model-Based Approach to Support the Automatic Safety Analysis of Multiple Product Line Products;2015;4th Brazilian Symposium on Computing Systems Engineering, SBESC 2014;2015-April;;7;12;IEEE
Ghosh D., Mandal C.;Layout validation using graph grammar and generation of yard specific safety properties for railway interlocking verification;2016;22nd Asia-Pacific Software Engineering Conference, APSEC 2015;2016-May;;330;337;IEEE
Jia Y., Liu B., Jiang W., Wu B., Wang C.;Poster: Enhancing Remote Healthiness Attestation for Constrained IoT Devices;2020;28th IEEE International Conference on Network Protocols, ICNP 2020;2020-October;;;;IEEE
Carver J., Capilla R., Penzenstadler B., Serebrenik A., Valdezate A.;Gender, Sentiment and Emotions, and Safety-Critical Systems;2018;IEEE Software;35;6;16;19;IEEE
De Oliveira A.L., Braga R.T.V., Masiero P.C., Papadopoulos Y., Habli I., Kelly T.;Model-based safety analysis of software product lines;2016;International Journal of Embedded Systems;8;5-6;412;426;Inderscience Publishers
Nakamura Y., Sameshima Y., Yamauchi T.;SELinux security policy configuration system with higher level language;2010;Journal of Information Processing;18;;201;212;Information Processing Society of Japan
Singh S.;The role of speech technology in biometrics, forensics and man-machine interface;2019;International Journal of Electrical and Computer Engineering;9;1;281;288;Institute of Advanced Engineering and Science
Bressan L., De Oliveira A.L., Campos F.;An Approach to Support Variant Management on Safety Analysis using CHESS Error Models;2020;16th European Dependable Computing Conference, EDCC 2020;;;135;142;IEEE
Diemert S., Millet L., Joyce J.;Safety properties of hybrid system product lines;2020;14th Annual IEEE International Systems Conference, SYSCON 2020;;;;;IEEE
Liaskos S., Anand T., Alimohammadi N.;Architecting blockchain network simulators: A model-driven perspective;2020;2nd IEEE International Conference on Blockchain and Cryptocurrency, ICBC 2020;;;;;IEEE
Teplyuk P.A., Yakunin A.G., Sharlaev E.V.;Study of Security Flaws in the Linux Kernel by Fuzzing;2020;2020 International Multi-Conference on Industrial Engineering and Modern Technologies, FarEastCon 2020;;;;;IEEE
Wilson B., Young B.;Cyber Secure and Resilient Approaches for Feature Based Variation Management;2020;2020 Systems Security Symposium, SSS 2020;;;;;IEEE
Ben Salem M.O., Mosbahi O.;Development Methodology of Reconfigurable Robotic Systems. Application to BROS Project;2019;3rd International Conference on Control, Artificial Intelligence, Robotics and Optimization, ICCAIRO 2019;;;106;114;IEEE
Ebnauf M., Abdelmoez W., Ammar H.H., Hassan A., Abdelhamid M.;State-driven Architecture Design for Safety-critical Software Product Lines;2019;7th International Conference on Mechatronics Engineering, ICOM 2019;;;;;IEEE
Kang M., Kwon H.-Y.;A Study on the Needs for Enhancement of Personal Information Protection in Cloud Computing Security Certification System;2019;6th International Conference on Platform Technology and Service, PlatCon 2019;;;;;IEEE
Khan R.;Dynamically Configurable Architecture for User Identification and Authentication for Internet of Things Platform;2019;2nd International Conference on Electrical, Computer and Communication Engineering, ECCE 2019;;;;;IEEE
Onwubiko C., Ouazzane K.;Cyber onboarding is 'broken';2019;5th International Conference on Cyber Security and Protection of Digital Services, Cyber Security 2019;;;;;IEEE
Wang L., Hong Y., Li K., Zhou Q., Zhang G., Wang M.;A novel IMA resource configuration method based on feature modeling and optimization;2019;3rd IEEE International Conference on Electronic Information Technology and Computer Engineering, EITCE 2019;;;1216;1223;IEEE
Warg F., Blom H., Borg J., Johansson R.;Continuous deployment for dependable systems with continuous assurance cases;2019;30th IEEE International Symposium on Software Reliability Engineering Workshops, ISSREW 2019;;;318;325;IEEE
Handur V.S., Belkar S., Deshpande S., Marakumbi P.R.;Study of load balancing algorithms for Cloud Computing;2018;2nd International Conference on Green Computing and Internet of Things, ICGCIoT 2018;;;173;176;IEEE
Lauber A., Guissouma H., Sax E.;Virtual Test Method for Complex and Variant-Rich Automotive Systems;2018;2018 IEEE International Conference on Vehicular Electronics and Safety, ICVES 2018;;;;;IEEE
Li W., Jin Q., Zhang B., Liu Q., Xia Y.;Approach of linkage policy decision based on security vulnerability situation and multi factors fusion;2018;3rd IEEE Advanced Information Technology, Electronic and Automation Control Conference, IAEAC 2018;;;689;693;IEEE
Amoud M., Roudies O.;Dynamic adaptation and reconfiguration of security in mobile devices;2017;2017 International Conference On Cyber Incident Response, Coordination, Containment and Control, Cyber Incident 2017;;;;;IEEE
Barner S., Diewald A., Migge J., Syed A., Fohler G., Faugere M., Perez D.G.;DREAMS Toolchain: Model-Driven Engineering of Mixed-Criticality Systems;2017;20th ACM/IEEE International Conference on Model Driven Engineering Languages and Systems, MODELS 2017;;;259;269;IEEE
Jin S., Ge J., Peng J.;Terrorism risk assessment using hierarchical bidirectional fuzzy rule interpolation;2017;15th IEEE International Conference on Cognitive Informatics and Cognitive Computing, ICCI*CC 2016;;;403;410;IEEE
Larrucea A., Martinez I., Nicolas C.F., Perez J., Obermaisser R.;Modular Development and Certification of Dependable Mixed-Criticality Systems;2017;20th Euromicro Conference on Digital System Design, DSD 2017;;;419;426;IEEE
Rahimi M., Xiong W., Cleland-Huang J., Lutz R.;Diagnosing assumption problems in safety-critical products;2017;32nd IEEE/ACM International Conference on Automated Software Engineering, ASE 2017;;;473;484;IEEE
Sprovieri D., Argyropoulos N., Souveyet C., Mazo R., Mouratidis H., Fish A.;Security Alignment Analysis of Software Product Lines;2017;4th International Conference on Enterprise Systems, ES 2016;;;97;103;IEEE
Baumgart S., Froberg J.;Functional Safety in Product Lines - A Systematic Mapping Study;2016;42nd Euromicro Conference on Software Engineering and Advanced Applications, SEAA 2016;;;313;322;IEEE
Cheng M., Le Ping Y.;Designed and developed a civil airport safety management system;2016;10th Annual International Systems Conference, SysCon 2016;;;;;IEEE
Eleuterio J.D.A.S., Gaia F.N., Bondavalli A., Lollini P., Rodrigues G.N., Rubira C.M.F.;On the Dependability for Dynamic Software Product Lines: A Comparative Systematic Mapping Study;2016;42nd Euromicro Conference on Software Engineering and Advanced Applications, SEAA 2016;;;323;330;IEEE
Kabmeyer M., Bazan P., Schurius M., Berndt R., German R.;A Formal Model for Stateful and Variant-Rich Automotive Functions;2016;27th IEEE International Symposium on Software Reliability Engineering Workshops, ISSREW 2016;;;271;277;IEEE
Leite A.F., Alves V., Rodrigues G.N., Tadonki C., Eisenbeis C., Melo A.C.M.A.D.;Autonomic Provisioning, Configuration, and Management of Inter-cloud Environments Based on a Software Product Line Engineering Method;2016;2016 International Conference on Cloud and Autonomic Computing, ICCAC 2016;;;72;83;IEEE
Pathak N., Singh B.M., Sharma G.;Designing of SPF based secure web application using reverse engineering;2016;3rd International Conference on Computing for Sustainable Global Development, INDIACom 2016;;;70;76;IEEE
Schall D.;Design quality assessment & resolution in software intensive systems;2016;1st International Workshops on Foundations and Applications of Self-Systems, FAS-W 2016;;;100;105;IEEE
Achour I., Labed L., Ben Ghezala H.;Proposition of secure service oriented product line;2015;"6th International Conference on ""Information Systems and Economic Intelligence"", SIIE 2015";;;52;59;IEEE
Fernandez E.B., Yoshioka N., Washizaki H.;Patterns for security and privacy in cloud ecosystems;2015;2nd International Workshop on Evolving Security and Privacy Requirements Engineering, ESPRE 2015;;;13;18;IEEE
Gallina B.;Towards Enabling Reuse in the Context of Safety-Critical Product Lines;2015;5th International Workshop on Product Line Approaches in Software Engineering, PLEASE 2015;;;15;18;IEEE
Kaessmeyer M., Moncada D.S.V., Schurius M.;Evaluation of a systematic approach in variant management for safety-critical systems development;2015;13th IEEE/IFIP International Conference on Embedded and Ubiquitous Computing, EUC 2015;;;35;43;IEEE
Kaindl H., Popp R., Raneburger D.;Towards reuse in safety risk analysis based on product line requirements;2015;23rd IEEE International Requirements Engineering Conference, RE 2015;;;241;246;IEEE
Kubo;The research of IoT based on RFID technology;2015;7th International Conference on Intelligent Computation Technology and Automation, ICICTA 2014;;;832;835;IEEE
Salikiryaki A., Petrova I., Baumgart S.;Graphical Approach for Modeling of Safety and Variability in Product Lines;2015;41st Euromicro Conference on Software Engineering and Advanced Applications, SEAA 2015;;;410;417;IEEE
Tolosana R., Vera-Rodriguez R., Ortega-Garcia J., Fierrez J.;Update strategies for HMM-based dynamic signature biometric systems;2015;IEEE International Workshop on Information Forensics and Security, WIFS 2015;;;;;IEEE
Baumgart S., Froberg J., Punnekkat S.;Industrial challenges to achieve functional safety compliance in product lines;2014;40th Euromicro Conference Series on Software Engineering and Advanced Applications, SEAA 2014;;;356;360;IEEE
Baumgart S., Zhang X., Froberg J., Punnekkat S.;Variability management in product lines of safety critical embedded systems;2014;2014 International Conference on Embedded Systems, ICES 2014;;;98;103;IEEE
Behringer B., Lehser M., Rothkugel S.;Towards feature-oriented fault tree analysis;2014;38th Annual IEEE Computer Software and Applications Conference Workshops, COMPSACW 2014;;;522;527;IEEE
Bosman E., Bos H.;Framing signals - A return to portable shellcode;2014;35th IEEE Symposium on Security and Privacy, SP 2014;;;243;258;IEEE
Diagne S., Coulibaly A., De Beuvron F.;Towards a conceptual semantic design for mechatronic product's family development;2014;2014 International Conference on Innovative Design and Manufacturing, ICIDM 2014;;;94;99;IEEE
Franklin Z.R., Patterson C.D., Lerner L.W., Prado R.J.;Isolating trust in an industrial control system-on-chip architecture;2014;7th International Symposium on Resilient Control Systems, ISRCS 2014;;;;;IEEE
Hammani F.Z., Rhanoui M., El Asri B.;Towards a variable non-functional requirements integration for component-based product line: A generic approach;2014;2nd World Conference on Complex Systems, WCCS 2014;;;146;151;IEEE
Queiroz P.G.G., Braga R.T.V.;Development of critical embedded systems using model-driven and product lines techniques: A systematic review;2014;2014 8th Brazilian Symposium on Software Components, Architectures and Reuse, SBCARS 2014;;;74;83;IEEE
Rodriguez R.J., Punnekkat S.;Cost optimisation in certification of software product lines;2014;25th IEEE International Symposium on Software Reliability Engineering Workshops, ISSREW 2014;;;509;514;IEEE
Samih H., Guen H.L., Bogusch R., Acher M., Baudry B.;Deriving usage model variants for model-based testing: An industrial case study;2014;2014 19th International Conference on Engineering of Complex Computer Systems, ICECCS 2014;;;77;80;IEEE
Sanchez L.E., Diaz-Pace J.A., Zunino A., Moisan S., Rigault J.-P.;An approach for managing quality attributes at runtime using feature models;2014;2014 8th Brazilian Symposium on Software Components, Architectures and Reuse, SBCARS 2014;;;11;20;IEEE
Tanimoto S., Sato R., Kato K., Iwashita M., Seki Y., Sato H., Kanai A.;A study of risk assessment quantification in cloud computing;2014;17th International Conference on Network-Based Information Systems, NBiS 2014;;;426;431;IEEE
Desai S.J., Shoaib M., Raychowdhury A.;"An Ultra-Low Power, ""Always-On"" Camera Front-End for Posture Detection in Body Worn Cameras Using Restricted Boltzman Machines";2015;IEEE Transactions on Multi-Scale Computing Systems;1;4;187;194;IEEE
Hussain S.M., Islam M.H., Ali A., Nazir M.U.;Threat modeling framework for security of unified storages in private data centers;2020;22nd IEEE Conference on Business Informatics, CBI 2020;2;;111;120;IEEE
Murray L., Griffiths A., Strooper P.;OptoNet - A case study in using rigorous analysis techniques to justify a revised product assurance strategy;2002;8th IEEE international Conference on Engineering of Complex Computer Systems, ICECCS 2002;2002-January;;232;237;IEEE
Ridley M., Otero C., Elliott D., Merino X.;Quantifying the Security Posture of Containerized Mission Critical Systems;2018;2018 IEEE Southeastcon, Southeastcon 2018;2018-April;;;;IEEE
Ridley M., Otero C., Elliott D., Merino X.;Quantifying the Security Posture of Containerized Mission Critical Systems;2018;2018 IEEE Southeastcon, Southeastcon 2018;2018-April;;;;IEEE
Ashjaei M., Clegg K., Corneo L., Hawkins R., Jaradat O., Gulisano V.M., Nikolakopoulos Y.;Service Level Agreements for Safe and Configurable Production Environments;2018;23rd IEEE International Conference on Emerging Technologies and Factory Automation, ETFA 2018;2018-September;;1252;1255;IEEE
Varshney T., Sharma N., Kaushik I., Bhushan B.;Architectural Model of Security Threats theirCountermeasures in IoT;2019;2019 International Conference on Computing, Communication, and Intelligent Systems, ICCCIS 2019;2019-January;;424;429;IEEE
Hansch G., Schneider P., Fischer K., Böttinger K.;A Unified Architecture for Industrial IoT Security Requirements in Open Platform Communications;2019;24th IEEE International Conference on Emerging Technologies and Factory Automation, ETFA 2019;2019-September;;325;332;IEEE
Sahoo D., Sha S., Satpathy M., Mutyam M., Ramesh S., Roop P.;Formal modeling and verification of controllers for a family of DRAM caches;2018;IEEE Transactions on Computer-Aided Design of Integrated Circuits and Systems;37;11;2485;2496;IEEE
Ahmed B.S., Zamli K.Z., Afzal W., Bures M.;Constrained interaction testing: A systematic literature study;2017;IEEE Access;5;;25706;25730;IEEE
Wang L., Li S., Wei O., Huang M., Hu J.;An Automated Fault Tree Generation Approach with Fault Configuration Based on Model Checking;2018;IEEE Access;6;;46900;46914;IEEE
Køien G.M.;Challenges for evolving large-scale security architectures;2014;8th International Conference on Emerging Security Information, Systems and Technologies, SECURWARE 2014;;;173;179;IARIA
Takahashi K., Manago K., Hirotani D., Morikawa K.;An adaptive cellular manufacturing system for producing two kinds of products in unreliable cells;2013;22nd International Conference on Production Research, ICPR 2013;;;;;IFPR
Mushi M., Dutta R.;Proactive network configuration analysis for human errors;2019;10th International Multi-Conference on Complexity, Informatics and Cybernetics, IMCIC 2019;1;;63;69;IIIS
Jiang Z., Zhao T., Ren F.;A discussion of dynamic configuration technology in complex system;2017;8th International Multi-Conference on Complexity, Informatics and Cybernetics, IMCIC 2017;2017-March;;46;48;IIIS
Ostrosi E., Sagot S.;Modularity and configuration applied to product integrating the IoT technology;2020;27th ISTE International Conference on Transdisciplinary Engineering, TE 2020;12;;602;611;IOS Press BV
Oster C., Kaiser M., Kruse J., Wade J., Cloutier R.;Applying Composable Architectures to the Design and Development of a Product Line of Complex Systems;2016;Systems Engineering;19;6;522;534;Wiley
Maier M.W.;Architecting a portfolio of systems;2019;Systems Engineering;22;4;335;347;Wiley
Horcas J.M., Monteil J., Bouroche M., Pinto M., Fuentes L., Clarke S.;Context-dependent reconfiguration of autonomous vehicles in mixed traffic;2018;Journal of Software: Evolution and Process;30;4;;;Wiley
de Oliveira A.L., Braga R., Masiero P., Parker D., Papadopoulos Y., Habli I., Kelly T.;Variability management in safety-critical systems design and dependability analysis;2019;Journal of Software: Evolution and Process;31;8;;;Wiley
Hundt C., Mehner K., Pfeiffer C., Sokenou D.;Improving alignment of crosscutting features with code in product line engineering;2007;Journal of Object Technology;6;9;417;436;Journal of Object Technology
Khan D.M., Aslam T., Akhtar N., Qadri S., Khan N.A., Rabbani I.M., Aslam M.;Black hole attack prevention in mobile ad-hoc network (Manet) using ant colony optimization technique;2020;Information Technology and Control;49;3;308;319;Kauno Technologijos Universitetas
Zhang G., Ye H., Lin Y.;Quality attribute modeling and quality aware product configuration in software product lines;2014;Software Quality Journal;22;3;365;401;Kluwer Academic Publishers
Queiroz P.G.G., Braga R.T.V.;A Critical Embedded System product line model-based approach;2014;26th International Conference on Software Engineering and Knowledge Engineering, SEKE 2014;2014-January;January;71;75;Knowledge Systems Institute Graduate School
Becker M., Kemmann S., Shashidhar K.C.;Integrating software safety and product line engineering using formal methods: Challenges and opportunities;2010;14th International Software Product Line Conference, SPLC 2010;;;129;136;Lancaster University
Li D.;A robust-reference-architecture-centric approach for high availability sple in security inspection domain;2010;14th International Software Product Line Conference, SPLC 2010;;;259;262;Lancaster University
Saunders Stephen;Better remote links for appletalk;1994;Data Communications;23;2;69;74;McGraw-Hill
Varela-Vaca Á.J., Gasca R.M., Ceballos R., Gómez-López M.T., Torres P.B.;CyberSPL: A framework for the verification of cybersecurity policy compliance of system configurations using software product lines;2019;Applied Sciences (Switzerland);9;24;;;MDPI AG
Graydon P., Bate I.;Realistic safety cases for the timing of systems;2014;Computer Journal;57;5;759;774;Oxford University Press
Anwar Basha H., Amrit Sai S., Sanjnah A., Srimathi M.;Cloud computing: Secure transmission of high definition videos using cryptographic approach;2018;International Journal of Engineering and Technology(UAE);7;2.19 Special issue 19;94;96;Science Publishing Corporation
Fotso S.J.T., Laleau R., Barradas H.R., Frappier M., Mammar A.;A formal requirements modeling approach: Application to rail communication;2019;14th International Conference on Software Technologies, ICSOFT 2019;;;170;177;SciTePress
Iglesias A., Iglesias-Urkia M., López-Davalillo B., Charramendieta S., Urbieta A.;Trilateral: Software product line based multidomain IoT artifact generation for industrial CPS;2019;7th International Conference on Model-Driven Engineering and Software Development, MODELSWARD 2019;;;64;73;SciTePress
Lohmüller P., Bauer B.;Software product line engineering for safety-critical systems;2019;7th International Conference on Model-Driven Engineering and Software Development, MODELSWARD 2019;;;211;218;SciTePress
Shin M., Gomaa H., Pathirage D.;A software product line approach for feature modeling and design of secure connectors;2019;13th International Conference on Software Technologies, ICSOFT 2018;;;506;517;SciTePress
Achour I., Labed L., Ghezala H.B.;Formalization of secure service oriented product line;2015;10th International Conference on Software Engineering and Applications, ICSOFT-EA 2015;;;93;104;SciTePress
Lanman J.T., Linos P.K., Barry L.T.C.J., Alston A.;Modernizing the U.S. Army's live training product line using a cloud migration strategy: Early experiences, current challenges and future roadmap;2016;18th International Conference on Enterprise Information Systems, ICEIS 2016;1;;552;559;SciTePress
Ogunshile E.K.A.;Qvm: A command line tool for the provisioning of virtual machines;2018;8th International Conference on Cloud Computing and Services Science, CLOSER 2018;2018-January;;287;298;SciTePress
Manimekalai S.;Component based software development using refactoring with form method;2016;International Journal of Control Theory and Applications;9;40;7;17;Serials Publications
Lueder Reinhard, Sevcik Maximilian;Customers are in the driver's seat;1995;Telcom Report (English Edition);18;Suppl;39;41;Siemens AG
McCullough C.P.;Wind shear detection systems;1996;Air Traffic Control Technologies II 1996;2737;;66;73;SPIE
Fraenkel R., Aronov D., Benny Y., Berkowicz E., Bykov L., Calahorra Z., Fishman T., Giladi A., Ilan E., Klipstein P., Langof L., Lukomsky I., Mistele D., Mizrahi U., Nussinson D., Twitto A., Yassen M., Zemel A.;SCD's cooled and uncooled photo detectors for NIR SWIR;2012;38th Conference on Infrared Technology and Applications;8353;;;;SPIE
Starodubov D., McCormick K., Volfson L.;Design considerations for eye-safe single-aperture laser radars;2015;"Radar Sensor Technology XIX; and Active and Passive Signatures VI";9461;;;;SPIE
Cameron A., Hobson R.;Head-up, eyes-out in day and at night: Striker® HMD, evolution or revolution?;2016;Degraded Visual Environments: Enhanced, Synthetic, and External Vision Solutions 2016;9839;;;;SPIE
Kitahara Y., Domier C.W., Ikeda M., Pham A.-V., Luhmann N.C.;Detection of small metal particles by a quasi-optical system at sub-millimeter wavelength;2016;Terahertz Physics, Devices, and Systems X: Advanced Applications in Industry and Defense;9856;;;;SPIE
Dimovski A.S., Brabrand C., Wąsowski A.;Finding suitable variability abstractions for lifted analysis;2019;Formal Aspects of Computing;;;;;Springer
Etxeberria L., Sagardui G., Belategi L.;Quality aware software product line engineering;2008;Journal of the Brazilian Computer Society;14;1;57;69;Springer
Ford M., Palmer W.;Alexa, are you listening to me? An analysis of Alexa voice service network traffic;2019;Personal and Ubiquitous Computing;23;1;67;79;Springer
Addy E.A.;A framework for performing verification and validation in reuse-based software engineering;1998;Annals of Software Engineering;5;;279;292;Springer
Lozano A.J., Medaglia A.L.;Scheduling of parallel machines with sequence-dependent batches and product incompatibilities in an automotive glass facility;2014;Journal of Scheduling;17;6;521;540;Springer
Leite A.F., Alves V., Rodrigues G.N., Tadonki C., Eisenbeis C., Melo A.C.M.A.;Dohko: an autonomic system for provision, configuration, and management of inter-cloud environments based on a software product line engineering method;2017;Cluster Computing;20;3;1951;1976;Springer
Verhulst E., Sputh B., Van Schaik P.;Antifragility: systems engineering at its best;2015;Journal of Reliable Intelligent Environments;1;2-4;101;121;Springer
Memon M., Menghwar G.D., Depar M.H., Jalbani A.A., Mashwani W.M.;Security modeling for service-oriented systems using security pattern refinement approach;2014;Software and Systems Modeling;13;2;549;572;Springer
Soleimanifard S., Gurov D., Huisman M.;Procedure-modular specification and verification of temporal safety properties;2015;Software and Systems Modeling;14;1;83;100;Springer
Lochau M., Bürdek J., Hölzle S., Schürr A.;Specification and automated validation of staged reconfiguration processes for dynamic software product lines;2017;Software and Systems Modeling;16;1;125;152;Springer
Rodrigues V., Donetti S., Damiani F.;Certifying delta-oriented programs;2019;Software and Systems Modeling;18;5;2875;2906;Springer
Basile D.;Applying supervisory control synthesis to priced featured automata and energy problems;2019;International Journal on Software Tools for Technology Transfer;21;6;679;689;Springer
Hatzisymeon G., Houssos N., Andreadis D., Samoladas V.;An architecture for implementing application interoperation with heterogeneous systems;2005;5th IFIP WG 6.1 International Conference on Distributed Applications and Interoperable Systems, DAIS 2005;3543;;194;205;Springer
Vukasovic M.B., Veselinovic B.S., Stanisavljevic Z.S.;Design and implementation of a configurable system for managing X509 certificates;2018;Telfor Journal;10;2;102;107;Telecommunications Society and Academic Mind
Dulaunoy A., Wagener G., Stiefer M., Wagner C.;The void - An interesting place for network security monitoring;2014;30th TERENA Networking Conference: Networking with the World, TNC 2014;;;;;TERENA
Maciel H.S., Cardoso I., Ramos H.S., Rodrigues J.J.P.C., Aquino A.L.L.;An integrated access control and lighting configuration system for smart buildings;2017;Journal of Communications Software and Systems;13;2;101;108;University of Split
Hunt G.C., Larus J.R., Tarditi D., Wobber T.;Broad new OS research: Challenges and opportunities;2005;10th Workshop on Hot Topics in Operating Systems, HotOS 2005;;;;;USENIX Association
Gannouni W., Doumbia M.L., Badri A.;Systematic approach furthering confirmation measures of safety critical automotive systems;2018;WIT Transactions on the Built Environment;174;;237;246;WITPress
